IS415-GAA - Take Home Exercise 2: Spatio-temporal Analysis of Vaccination Trends in DKI Jakarta
…
arrange(HCSA_first, gi_star)

Simple feature collection with 261 features and 5 fields
Geometry type: MULTIPOLYGON
Dimension:     XY
Bounding box:  xmin: -3644275 ymin: 663887.8 xmax: -3606237 ymax: 701380.1
Projected CRS: DGN95 / Indonesia TM-3 zone 54.1
# A tibble: 261 x 6
   gi_star p_sim DESA            DATE       FIRST DO~1                  geometry
     <dbl> <dbl> <chr>           <date>          <dbl>        <MULTIPOLYGON [m]>
 1   -5.25  0.02 KEBON KACANG    2022-06-30      0.807 (((-3625808 687465.5, -3~
 2   -4.51  0.02 KEBON MELATI    2022-06-30      0.783 (((-3626882 686779.9, -3~
 3   -4.43  0.02 BENDUNGAN HILIR 2022-06-30      0.833 (((-3627088 685743.3, -3~
 4   -3.47  0.02 PETAMBURAN      2022-06-30      0.787 (((-3628411 685042.2, -3~
 5   -3.19  0.02 GONDANGDIA      2022-06-30      0.802 (((-3624308 687466.3, -3~
 6   -3.12  0.04 KAMPUNG BALI    2022-06-30      0.825 (((-3625850 687583.2, -3~
 7   -3.06  0.02 BATU AMPAR      2022-06-30      0.814 (((-3618791 676066.9, -3~
 8   -2.98  0.02 GELORA          2022-06-30      0.839 (((-3628597 685303.7, -3~
 9   -2.87  0.02 KEBON SIRIH     2022-06-30      0.828 (((-3623898 688271.9, -3~
10   -2.72  0.04 MENTENG         2022-06-30      0.823 (((-3623479 686316.2, -3~
# ... with 251 more rows, and abbreviated variable name 1: `FIRST DOSE RATE`
…
arrange(HCSA_second, gi_star)

Simple feature collection with 261 features and 5 fields
Geometry type: MULTIPOLYGON
Dimension:     XY
Bounding box:  xmin: -3644275 ymin: 663887.8 xmax: -3606237 ymax: 701380.1
Projected CRS: DGN95 / Indonesia TM-3 zone 54.1
# A tibble: 261 x 6
   gi_star p_sim DESA         DATE       SECOND DOSE~1                  geometry
     <dbl> <dbl> <chr>        <date>             <dbl>        <MULTIPOLYGON [m]>
 1   -4.97  0.02 CILINCING    2022-06-30         0.698 (((-3608930 700323.4, -3~
 2   -4.00  0.02 KEBON KACANG 2022-06-30         0.708 (((-3625808 687465.5, -3~
 3   -3.84  0.02 KALIBARU     2022-06-30         0.626 (((-3611558 700364.2, -3~
 4   -3.77  0.02 LAGOA        2022-06-30         0.712 (((-3613975 697258.7, -3~
 5   -3.41  0.04 SEMPER BARAT 2022-06-30         0.764 (((-3611299 695056.3, -3~
 6   -3.31  0.02 SEMPER TIMUR 2022-06-30         0.738 (((-3610704 695221.9, -3~
 7   -3.16  0.04 KEBON MELATI 2022-06-30         0.650 (((-3626882 686779.9, -3~
 8   -2.96  0.02 PETAMBURAN   2022-06-30         0.664 (((-3628411 685042.2, -3~
 9   -2.95  0.02 MARUNDA      2022-06-30         0.685 (((-3607419 701299.7, -3~
10   -2.62  0.02 TENGAH       2022-06-30         0.701 (((-3618479 674818.7, -3~
# ... with 251 more rows, and abbreviated variable name 1: `SECOND DOSE RATE`
…
arrange(HCSA_third, gi_star)

Simple feature collection with 261 features and 5 fields
Geometry type: MULTIPOLYGON
Dimension:     XY
Bounding box:  xmin: -3644275 ymin: 663887.8 xmax: -3606237 ymax: 701380.1
Projected CRS: DGN95 / Indonesia TM-3 zone 54.1
# A tibble: 261 x 6
   gi_star p_sim DESA             DATE       THIRD D~1                  geometry
     <dbl> <dbl> <chr>            <date>         <dbl>        <MULTIPOLYGON [m]>
 1   -3.15  0.02 SEMPER TIMUR     2022-06-30     0.300 (((-3610704 695221.9, -3~
 2   -3.14  0.02 SEMPER BARAT     2022-06-30     0.324 (((-3611299 695056.3, -3~
 3   -3.14  0.02 CILINCING        2022-06-30     0.259 (((-3608930 700323.4, -3~
 4   -3.02  0.02 KALIBARU         2022-06-30     0.177 (((-3611558 700364.2, -3~
 5   -2.95  0.02 LAGOA            2022-06-30     0.288 (((-3613975 697258.7, -3~
 6   -2.53  0.02 RAWA BADAK UTARA 2022-06-30     0.284 (((-3615834 697699.9, -3~
 7   -2.44  0.04 HARAPAN MULIA    2022-06-30     0.306 (((-3621251 689507, -362~
 8   -2.42  0.02 MARUNDA          2022-06-30     0.239 (((-3607419 701299.7, -3~
 9   -2.35  0.02 KEBON BAWANG     2022-06-30     0.301 (((-3617160 697993.4, -3~
10   -2.28  0.04 MANGGARAI        2022-06-30     0.292 (((-3622058 685018.6, -3~
# ... with 251 more rows, and abbreviated variable name 1: `THIRD DOSE RATE`
…
Computing local Gi*

Using these new columns, we can calculate the local Gi* for each location grouped by DATE. For this analysis, we will be focusing more on the overall vaccination rate (i.e. FIRST DOSE RATE)

EHSA_gi_star <- vaccine_rates_nb %>% 
  group_by(`DATE`) %>%
  mutate(gi_star = local_gstar_perm(
    `FIRST DOSE RATE`, nb, wt, nsim=99),
    .before = 1) %>% 
  unnest(gi_star)

EHSA_gi_star

# A tibble: 3,132 x 15
# Groups:   DATE [12]
   gi_star    e_gi       var_gi     p_value p_sim p_fold~1 skewn~2 kurto~3 DESA 
     <dbl>   <dbl>        <dbl>       <dbl> <dbl>    <dbl>   <dbl>   <dbl> <chr>
 1   2.00  0.00382 0.0000000147 0.0451       0.06     0.03 -0.225   0.153  ANCOL
 2  -0.901 0.00382 0.0000000203 0.368        0.32     0.16  0.346  -0.491  ANGKE
 3  -3.84  0.00382 0.0000000299 0.000124     0.02     0.01  0.345   0.255  BALE~
 4  -3.46  0.00382 0.0000000151 0.000536     0.02     0.01 -0.0937 -0.257  BALI~
 5  -1.08  0.00383 0.0000000281 0.280        0.3      0.15 -0.371  -0.214  BAMB~
 6   0.984 0.00383 0.0000000131 0.325        0.32     0.16 -0.114   0.271  BANG~
 7   0.921 0.00383 0.0000000220 0.357        0.38     0.19  0.235   0.177  BARU 
 8  -5.08  0.00384 0.0000000172 0.000000379  0.02     0.01 -0.265  -0.223  BATU~
 9  -1.00  0.00384 0.0000000200 0.316        0.28     0.14  0.0723  0.480  BEND~
10  -4.04  0.00386 0.0000000154 0.0000534    0.02     0.01 -0.186  -0.0200 BIDA~
# ... with 3,122 more rows, 6 more variables: DATE <date>,
#   `FIRST DOSE RATE` <dbl>, `SECOND DOSE RATE` <dbl>, `THIRD DOSE RATE` <dbl>,
#   wt <list>, nb <list>, and abbreviated variable names 1: p_folded_sim,
#   2: skewness, 3: kurtosis
…
