IS415-GAA - In-Class Exercise 11: Spatial Interaction Models
…
Check for duplicate records

duplicate <- od_data %>%
  group_by_all() %>%
  filter(n()>1) %>%
  ungroup()

duplicate

# A tibble: 930 × 4
   ORIGIN_BS DESTIN_BS TRIPS ORIGIN_SZ
   <chr>     <fct>     <dbl> <chr>    
 1 22501     22009         3 JWSZ09   
 2 22501     22009         3 JWSZ09   
 3 22501     22451        49 JWSZ09   
 4 22501     22451        49 JWSZ09   
 5 22501     22469        11 JWSZ09   
 6 22501     22469        11 JWSZ09   
 7 22501     22479        29 JWSZ09   
 8 22501     22479        29 JWSZ09   
 9 22501     22509         2 JWSZ09   
10 22501     22509         2 JWSZ09   
# … with 920 more rows
…
od_data <- unique(od_data)

Now, we can also join the destination subzone information.

od_data <- left_join(od_data, busstop_mpsz, by = c("DESTIN_BS" = "BUS_STOP_N")) %>%
  rename(DESTIN_SZ = SUBZONE_C)

duplicate2 <- od_data %>%
  group_by_all() %>%
  filter(n()>1) %>%
  ungroup()

duplicate2

# A tibble: 1,216 × 5
   ORIGIN_BS DESTIN_BS TRIPS ORIGIN_SZ DESTIN_SZ
   <chr>     <chr>     <dbl> <chr>     <chr>    
 1 1012      82221         1 <NA>      GLSZ05   
 2 1012      82221         1 <NA>      GLSZ05   
 3 1112      51071        15 <NA>      CCSZ01   
 4 1112      51071        15 <NA>      CCSZ01   
 5 1112      53041         4 <NA>      BSSZ01   
 6 1112      53041         4 <NA>      BSSZ01   
 7 1112      82221         1 <NA>      GLSZ05   
 8 1112      82221         1 <NA>      GLSZ05   
 9 1121      51071         3 <NA>      CCSZ01   
10 1121      51071         3 <NA>      CCSZ01   
# … with 1,206 more rows
…
